{
    "_embedded": {
        "patientList": [
            {
                "id": 999,
                "filenum": "D999",
                "cin": "M3928945",
                "lastname": "Thornhill",
                "firstname": "Leonanie",
                "landline": "0",
                "insured": true,
                "active": true,
                "mobile": "953-286-3891",
                "gender": "M",
                "job": null,
                "birthdate": "1966-07-17",
                "address": "540 Hagan Circle",
                "city": null,
                "postalcode": 70241,
                "createdby": null,
                "createdon": null,
                "_links": {
                    "self": {
                        "href": "http://localhost:8090/patients/999"
                    },
                    "patients": {
                        "href": "http://localhost:8090/patients{?filenum,firstname,lastname,page,size}",
                        "templated": true
                    }
                }
            },
            {
                "id": 998,
                "filenum": "D998",
                "cin": "UD872480",
                "lastname": "Noar",
                "firstname": "Bran",
                "landline": "568-849-7571",
                "insured": true,
                "active": false,
                "mobile": "337-840-8288",
                "gender": "M",
                "job": null,
                "birthdate": "1995-08-23",
                "address": "83 Columbus Point",
                "city": null,
                "postalcode": 53345,
                "createdby": null,
                "createdon": null,
                "_links": {
                    "self": {
                        "href": "http://localhost:8090/patients/998"
                    },
                    "patients": {
                        "href": "http://localhost:8090/patients{?filenum,firstname,lastname,page,size}",
                        "templated": true
                    }
                }
            },
            {
                "id": 997,
                "filenum": "D997",
                "cin": "Z2352468",
                "lastname": "Cullagh",
                "firstname": "Lanie",
                "landline": "0",
                "insured": true,
                "active": false,
                "mobile": "793-932-3326",
                "gender": "M",
                "job": null,
                "birthdate": "1980-10-03",
                "address": "38 Monument Place",
                "city": null,
                "postalcode": 52006,
                "createdby": null,
                "createdon": null,
                "_links": {
                    "self": {
                        "href": "http://localhost:8090/patients/997"
                    },
                    "patients": {
                        "href": "http://localhost:8090/patients{?filenum,firstname,lastname,page,size}",
                        "templated": true
                    }
                }
            },
            {
                "id": 996,
                "filenum": "D996",
                "cin": "LS715699",
                "lastname": "Dobbyn",
                "firstname": "Harri",
                "landline": "962-905-6260",
                "insured": true,
                "active": true,
                "mobile": "326-593-5432",
                "gender": "M",
                "job": null,
                "birthdate": "1995-06-26",
                "address": "5 Merrick Crossing",
                "city": null,
                "postalcode": 17489,
                "createdby": null,
                "createdon": null,
                "_links": {
                    "self": {
                        "href": "http://localhost:8090/patients/996"
                    },
                    "patients": {
                        "href": "http://localhost:8090/patients{?filenum,firstname,lastname,page,size}",
                        "templated": true
                    }
                }
            },
            {
                "id": 995,
                "filenum": "D995",
                "cin": "T7353744",
                "lastname": "Flucker",
                "firstname": "Adda",
                "landline": "0",
                "insured": true,
                "active": true,
                "mobile": "733-364-5708",
                "gender": "F",
                "job": null,
                "birthdate": "1979-02-01",
                "address": "195 Paget Parkway",
                "city": null,
                "postalcode": 18079,
                "createdby": null,
                "createdon": null,
                "_links": {
                    "self": {
                        "href": "http://localhost:8090/patients/995"
                    },
                    "patients": {
                        "href": "http://localhost:8090/patients{?filenum,firstname,lastname,page,size}",
                        "templated": true
                    }
                }
            },
            {
                "id": 994,
                "filenum": "D994",
                "cin": "A3220612",
                "lastname": "Geist",
                "firstname": "Denis",
                "landline": "275-807-0940",
                "insured": true,
                "active": true,
                "mobile": "456-511-7446",
                "gender": "F",
                "job": null,
                "birthdate": "1960-08-09",
                "address": "95054 Crownhardt Circle",
                "city": null,
                "postalcode": 65369,
                "createdby": null,
                "createdon": null,
                "_links": {
                    "self": {
                        "href": "http://localhost:8090/patients/994"
                    },
                    "patients": {
                        "href": "http://localhost:8090/patients{?filenum,firstname,lastname,page,size}",
                        "templated": true
                    }
                }
            },
            {
                "id": 993,
                "filenum": "D993",
                "cin": "Z6366149",
                "lastname": "Bowfin",
                "firstname": "Inness",
                "landline": "695-112-2489",
                "insured": true,
                "active": true,
                "mobile": "990-665-2618",
                "gender": "F",
                "job": null,
                "birthdate": "2012-04-29",
                "address": "0 Charing Cross Alley",
                "city": null,
                "postalcode": 37046,
                "createdby": null,
                "createdon": null,
                "_links": {
                    "self": {
                        "href": "http://localhost:8090/patients/993"
                    },
                    "patients": {
                        "href": "http://localhost:8090/patients{?filenum,firstname,lastname,page,size}",
                        "templated": true
                    }
                }
            },
            {
                "id": 992,
                "filenum": "D992",
                "cin": "XY247607",
                "lastname": "Bernette",
                "firstname": "Mariska",
                "landline": "642-570-3873",
                "insured": true,
                "active": false,
                "mobile": "203-428-8042",
                "gender": "M",
                "job": null,
                "birthdate": "1970-07-06",
                "address": "5848 Colorado Street",
                "city": null,
                "postalcode": 15985,
                "createdby": null,
                "createdon": null,
                "_links": {
                    "self": {
                        "href": "http://localhost:8090/patients/992"
                    },
                    "patients": {
                        "href": "http://localhost:8090/patients{?filenum,firstname,lastname,page,size}",
                        "templated": true
                    }
                }
            },
            {
                "id": 991,
                "filenum": "D991",
                "cin": "V8130325",
                "lastname": "Rosbrough",
                "firstname": "Lotta",
                "landline": "0",
                "insured": true,
                "active": true,
                "mobile": "530-459-5647",
                "gender": "F",
                "job": null,
                "birthdate": "2005-07-03",
                "address": "8595 Village Pass",
                "city": null,
                "postalcode": 93192,
                "createdby": null,
                "createdon": null,
                "_links": {
                    "self": {
                        "href": "http://localhost:8090/patients/991"
                    },
                    "patients": {
                        "href": "http://localhost:8090/patients{?filenum,firstname,lastname,page,size}",
                        "templated": true
                    }
                }
            },
            {
                "id": 990,
                "filenum": "D990",
                "cin": "FX720648",
                "lastname": "Lightowlers",
                "firstname": "Kathye",
                "landline": "687-499-0017",
                "insured": true,
                "active": false,
                "mobile": "100-616-2764",
                "gender": "F",
                "job": null,
                "birthdate": "1954-07-15",
                "address": "938 Bashford Parkway",
                "city": null,
                "postalcode": 20248,
                "createdby": null,
                "createdon": null,
                "_links": {
                    "self": {
                        "href": "http://localhost:8090/patients/990"
                    },
                    "patients": {
                        "href": "http://localhost:8090/patients{?filenum,firstname,lastname,page,size}",
                        "templated": true
                    }
                }
            },
            {
                "id": 99,
                "filenum": "D99",
                "cin": "XC081933",
                "lastname": "Bradnocke",
                "firstname": "Edeline",
                "landline": "941-724-7974",
                "insured": true,
                "active": true,
                "mobile": "591-231-4556",
                "gender": "F",
                "job": null,
                "birthdate": "1996-10-02",
                "address": "76 Meadow Valley Place",
                "city": null,
                "postalcode": 82822,
                "createdby": null,
                "createdon": null,
                "_links": {
                    "self": {
                        "href": "http://localhost:8090/patients/99"
                    },
                    "patients": {
                        "href": "http://localhost:8090/patients{?filenum,firstname,lastname,page,size}",
                        "templated": true
                    }
                }
            },
            {
                "id": 989,
                "filenum": "D989",
                "cin": "AJ269229",
                "lastname": "MacGaughy",
                "firstname": "Daffi",
                "landline": "711-557-0634",
                "insured": true,
                "active": true,
                "mobile": "862-857-8809",
                "gender": "M",
                "job": null,
                "birthdate": "1996-10-24",
                "address": "0 Erie Junction",
                "city": null,
                "postalcode": 52712,
                "createdby": null,
                "createdon": null,
                "_links": {
                    "self": {
                        "href": "http://localhost:8090/patients/989"
                    },
                    "patients": {
                        "href": "http://localhost:8090/patients{?filenum,firstname,lastname,page,size}",
                        "templated": true
                    }
                }
            },
            {
                "id": 988,
                "filenum": "D988",
                "cin": "P3907078",
                "lastname": "Latehouse",
                "firstname": "Cull",
                "landline": "335-637-7010",
                "insured": false,
                "active": false,
                "mobile": "861-980-9829",
                "gender": "M",
                "job": null,
                "birthdate": "1973-08-09",
                "address": "76 Sunbrook Avenue",
                "city": null,
                "postalcode": 23226,
                "createdby": null,
                "createdon": null,
                "_links": {
                    "self": {
                        "href": "http://localhost:8090/patients/988"
                    },
                    "patients": {
                        "href": "http://localhost:8090/patients{?filenum,firstname,lastname,page,size}",
                        "templated": true
                    }
                }
            },
            {
                "id": 987,
                "filenum": "D987",
                "cin": "TK203482",
                "lastname": "Sanz",
                "firstname": "Leonid",
                "landline": "0",
                "insured": true,
                "active": false,
                "mobile": "299-438-2172",
                "gender": "M",
                "job": null,
                "birthdate": "1967-09-03",
                "address": "1 Mcbride Court",
                "city": null,
                "postalcode": 44123,
                "createdby": null,
                "createdon": null,
                "_links": {
                    "self": {
                        "href": "http://localhost:8090/patients/987"
                    },
                    "patients": {
                        "href": "http://localhost:8090/patients{?filenum,firstname,lastname,page,size}",
                        "templated": true
                    }
                }
            },
            {
                "id": 986,
                "filenum": "D986",
                "cin": "ZU426881",
                "lastname": "Dmitrienko",
                "firstname": "Marcus",
                "landline": "482-207-9418",
                "insured": true,
                "active": false,
                "mobile": "830-509-4527",
                "gender": "F",
                "job": null,
                "birthdate": "2000-04-09",
                "address": "090 Bultman Place",
                "city": null,
                "postalcode": 60167,
                "createdby": null,
                "createdon": null,
                "_links": {
                    "self": {
                        "href": "http://localhost:8090/patients/986"
                    },
                    "patients": {
                        "href": "http://localhost:8090/patients{?filenum,firstname,lastname,page,size}",
                        "templated": true
                    }
                }
            }
        ]
    },
    "_links": {
        "first": {
            "href": "http://localhost:8090/patients?page=0&size=15&sort=filenum,desc"
        },
        "self": {
            "href": "http://localhost:8090/patients?page=0&size=15&sort=filenum,desc"
        },
        "next": {
            "href": "http://localhost:8090/patients?page=1&size=15&sort=filenum,desc"
        },
        "last": {
            "href": "http://localhost:8090/patients?page=66&size=15&sort=filenum,desc"
        }
    },
    "page": {
        "size": 15,
        "totalElements": 1000,
        "totalPages": 67,
        "number": 0
    }
}